<svg xmlns="http://www.w3.org/2000/svg" viewBox="0 0 34.968 35" fill="#0e0e0e">
  <g id="Group_408" data-name="Group 408" transform="translate(1 0.95)">
    <path id="Path_36" data-name="Path 36" class="cls-1" d="M50.447,294.759H41.7V283.387l.232-.178c.232-.178,5.132-3.909,7.934-1.811a5.526,5.526,0,0,0,3.321,1.052h2.276a5.1,5.1,0,0,1,4.2,2.16,1.784,1.784,0,0,1,.349,1.927,9.17,9.17,0,0,0,3.731-.526l5.016-3.089c2.563-1.339,3.615-1.339,4.668.062a1.72,1.72,0,0,1-.294,2.33h0l-8.8,6.936a3.794,3.794,0,0,1-1.927.991,3.282,3.282,0,0,1-.813.116l-7.579,1.169C52.839,294.643,51.609,294.759,50.447,294.759Zm-7.586-1.169h7.579a22.522,22.522,0,0,0,3.383-.232l7.695-1.169a2.28,2.28,0,0,0,.642-.061h.062a2.494,2.494,0,0,0,1.285-.642l.062-.061,8.864-6.882a.548.548,0,0,0,.116-.7c-.465-.7-.7-.991-3.15.232l-5.016,3.089c-1.339.7-3.909.759-6.649.7H56.68l.062-1.169h.642c.759-.062,1.456-.178,1.633-.465a1.058,1.058,0,0,0-.232-.813,3.911,3.911,0,0,0-3.321-1.749H53.188a6.735,6.735,0,0,1-4.025-1.285c-1.633-1.285-4.9.581-6.3,1.572v9.636ZM72.781,284.9Z" transform="translate(-39.782 -262.459)"/>
    <path id="Path_37" data-name="Path 37" class="cls-1" d="M3.08,304.464H-1V289.3H3.08ZM.169,303.3H1.918V290.468H.169Z" transform="translate(0 -270.414)"/>
    <path id="Path_39" data-name="Path 39" class="cls-1" d="M81.609,25.3a.581.581,0,1,1,0-1.162c.991,0,1.572-.232,1.688-.465A.948.948,0,0,0,83,22.863,3.672,3.672,0,0,0,79.8,21.229H77.522A6.735,6.735,0,0,1,73.5,19.945a2.7,2.7,0,0,0-2.1-.349.443.443,0,0,1-.465-.116.725.725,0,0,1-.232-.465v-8.29H68.31a.6.6,0,0,1-.526-.349.65.65,0,0,1,.178-.642L78.4.229a4.645,4.645,0,0,1,6.185,0l10.5,9.444a.666.666,0,0,1,.178.642.51.51,0,0,1-.526.349H92.4V22.036a.688.688,0,0,1-.294.526l-3.383,2.1a9.253,9.253,0,0,1-3.615.7Zm2.74-1.169h.7a8.172,8.172,0,0,0,3.089-.526L91.108,21.8V10.138a.549.549,0,0,1,.581-.581h1.4L83.762,1.1a3.464,3.464,0,0,0-4.606,0L69.827,9.557h1.456a.549.549,0,0,1,.581.581V18.3a3.431,3.431,0,0,1,2.33.642A5.526,5.526,0,0,0,77.516,20h2.276a5.1,5.1,0,0,1,4.2,2.16C84.52,22.972,84.636,23.615,84.349,24.134Z" transform="translate(-64.062 0)"/>
    <path id="Path_40" data-name="Path 40" class="cls-1" d="M189.13,114.861a2.33,2.33,0,1,1,2.33-2.33A2.338,2.338,0,0,1,189.13,114.861Zm0-3.5a1.169,1.169,0,1,0,1.169,1.169A1.173,1.173,0,0,0,189.13,111.362Z" transform="translate(-174.966 -103.554)"/>
    <path id="Path_41" data-name="Path 41" class="cls-1" d="M291.53,217.261a2.33,2.33,0,1,1,2.33-2.33A2.338,2.338,0,0,1,291.53,217.261Zm0-3.5a1.169,1.169,0,1,0,1.169,1.169A1.172,1.172,0,0,0,291.53,213.762Z" transform="translate(-270.368 -198.956)"/>
    <path id="Path_42" data-name="Path 42" class="cls-1" d="M187.334,121.812a.532.532,0,0,1-.41-.178.561.561,0,0,1,0-.813l10.5-10.5a.575.575,0,1,1,.813.813l-10.5,10.5A.522.522,0,0,1,187.334,121.812Z" transform="translate(-174.919 -103.507)"/>
  </g>
</svg>
